{"frames": [

{
	"filename": "add-button-down",
	"frame": {"x":962,"y":1374,"w":174,"h":59},
	"rotated": false,
	"trimmed": false,
	"spriteSourceSize": {"x":0,"y":0,"w":174,"h":59},
	"sourceSize": {"w":174,"h":59}
},
{
	"filename": "add-button-normal",
	"frame": {"x":975,"y":1313,"w":174,"h":59},
	"rotated": false,
	"trimmed": false,
	"spriteSourceSize": {"x":0,"y":0,"w":174,"h":59},
	"sourceSize": {"w":174,"h":59}
},
{
	"filename": "add-credits",
	"frame": {"x":2,"y":1328,"w":166,"h":44},
	"rotated": false,
	"trimmed": false,
	"spriteSourceSize": {"x":0,"y":0,"w":166,"h":44},
	"sourceSize": {"w":166,"h":44}
},
{
	"filename": "big-ui-button-down",
	"frame": {"x":1180,"y":782,"w":370,"h":86},
	"rotated": false,
	"trimmed": true,
	"spriteSourceSize": {"x":0,"y":0,"w":370,"h":86},
	"sourceSize": {"w":372,"h":86}
},
{
	"filename": "big-ui-button-normal",
	"frame": {"x":762,"y":1929,"w":366,"h":86},
	"rotated": false,
	"trimmed": false,
	"spriteSourceSize": {"x":0,"y":0,"w":366,"h":86},
	"sourceSize": {"w":366,"h":86}
},
{
	"filename": "button-round-green",
	"frame": {"x":413,"y":1947,"w":90,"h":90},
	"rotated": false,
	"trimmed": false,
	"spriteSourceSize": {"x":0,"y":0,"w":90,"h":90},
	"sourceSize": {"w":90,"h":90}
},
{
	"filename": "buy-credits",
	"frame": {"x":962,"y":1472,"w":163,"h":47},
	"rotated": false,
	"trimmed": false,
	"spriteSourceSize": {"x":0,"y":0,"w":163,"h":47},
	"sourceSize": {"w":163,"h":47}
},
{
	"filename": "buyin-bar",
	"frame": {"x":2,"y":729,"w":1185,"h":16},
	"rotated": false,
	"trimmed": false,
	"spriteSourceSize": {"x":0,"y":0,"w":1185,"h":16},
	"sourceSize": {"w":1185,"h":16}
},
{
	"filename": "buyin-bg",
	"frame": {"x":2,"y":2,"w":1618,"h":725},
	"rotated": false,
	"trimmed": false,
	"spriteSourceSize": {"x":0,"y":0,"w":1618,"h":725},
	"sourceSize": {"w":1618,"h":725}
},
{
	"filename": "buyin-icon",
	"frame": {"x":661,"y":1807,"w":131,"h":34},
	"rotated": false,
	"trimmed": false,
	"spriteSourceSize": {"x":0,"y":0,"w":131,"h":34},
	"sourceSize": {"w":131,"h":34}
},
{
	"filename": "buyin-label",
	"frame": {"x":975,"y":780,"w":203,"h":83},
	"rotated": false,
	"trimmed": false,
	"spriteSourceSize": {"x":0,"y":0,"w":203,"h":83},
	"sourceSize": {"w":203,"h":83}
},
{
	"filename": "buyin-slider",
	"frame": {"x":313,"y":1947,"w":98,"h":98},
	"rotated": false,
	"trimmed": false,
	"spriteSourceSize": {"x":0,"y":0,"w":98,"h":98},
	"sourceSize": {"w":98,"h":98}
},
{
	"filename": "cancel",
	"frame": {"x":1091,"y":1687,"w":144,"h":28},
	"rotated": false,
	"trimmed": false,
	"spriteSourceSize": {"x":0,"y":0,"w":144,"h":28},
	"sourceSize": {"w":144,"h":28}
},
{
	"filename": "change-pass-text",
	"frame": {"x":2,"y":2004,"w":309,"h":37},
	"rotated": false,
	"trimmed": false,
	"spriteSourceSize": {"x":0,"y":0,"w":309,"h":37},
	"sourceSize": {"w":309,"h":37}
},
{
	"filename": "change-pass",
	"frame": {"x":762,"y":2017,"w":287,"h":29},
	"rotated": false,
	"trimmed": false,
	"spriteSourceSize": {"x":0,"y":0,"w":287,"h":29},
	"sourceSize": {"w":287,"h":29}
},
{
	"filename": "confirm-pass-text",
	"frame": {"x":794,"y":1804,"w":277,"h":31},
	"rotated": false,
	"trimmed": false,
	"spriteSourceSize": {"x":0,"y":0,"w":277,"h":31},
	"sourceSize": {"w":277,"h":31}
},
{
	"filename": "email-text",
	"frame": {"x":661,"y":1770,"w":98,"h":35},
	"rotated": false,
	"trimmed": false,
	"spriteSourceSize": {"x":0,"y":0,"w":98,"h":35},
	"sourceSize": {"w":98,"h":35}
},
{
	"filename": "facebook-login",
	"frame": {"x":990,"y":1757,"w":274,"h":30},
	"rotated": false,
	"trimmed": false,
	"spriteSourceSize": {"x":0,"y":0,"w":274,"h":30},
	"sourceSize": {"w":274,"h":30}
},
{
	"filename": "forgot-pass-text",
	"frame": {"x":331,"y":1328,"w":301,"h":37},
	"rotated": false,
	"trimmed": false,
	"spriteSourceSize": {"x":0,"y":0,"w":301,"h":37},
	"sourceSize": {"w":301,"h":37}
},
{
	"filename": "forgot-password",
	"frame": {"x":1051,"y":2017,"w":279,"h":29},
	"rotated": false,
	"trimmed": false,
	"spriteSourceSize": {"x":0,"y":0,"w":279,"h":29},
	"sourceSize": {"w":279,"h":29}
},
{
	"filename": "guest-login",
	"frame": {"x":975,"y":747,"w":205,"h":31},
	"rotated": false,
	"trimmed": false,
	"spriteSourceSize": {"x":0,"y":0,"w":205,"h":31},
	"sourceSize": {"w":205,"h":31}
},
{
	"filename": "help-down",
	"frame": {"x":975,"y":1033,"w":182,"h":119},
	"rotated": false,
	"trimmed": false,
	"spriteSourceSize": {"x":0,"y":0,"w":182,"h":119},
	"sourceSize": {"w":182,"h":119}
},
{
	"filename": "help-normal",
	"frame": {"x":975,"y":912,"w":182,"h":119},
	"rotated": false,
	"trimmed": false,
	"spriteSourceSize": {"x":0,"y":0,"w":182,"h":119},
	"sourceSize": {"w":182,"h":119}
},
{
	"filename": "icon-sound-off-down",
	"frame": {"x":86,"y":1481,"w":82,"h":66},
	"rotated": false,
	"trimmed": true,
	"spriteSourceSize": {"x":3,"y":11,"w":82,"h":66},
	"sourceSize": {"w":90,"h":90}
},
{
	"filename": "icon-sound-off-normal",
	"frame": {"x":2,"y":1481,"w":82,"h":66},
	"rotated": false,
	"trimmed": true,
	"spriteSourceSize": {"x":3,"y":11,"w":82,"h":66},
	"sourceSize": {"w":90,"h":90}
},
{
	"filename": "icon-sound-on-down",
	"frame": {"x":1882,"y":1083,"w":84,"h":64},
	"rotated": false,
	"trimmed": true,
	"spriteSourceSize": {"x":2,"y":13,"w":84,"h":64},
	"sourceSize": {"w":90,"h":90}
},
{
	"filename": "icon-sound-on-normal",
	"frame": {"x":1796,"y":1083,"w":84,"h":64},
	"rotated": false,
	"trimmed": true,
	"spriteSourceSize": {"x":2,"y":13,"w":84,"h":64},
	"sourceSize": {"w":90,"h":90}
},
{
	"filename": "input-box",
	"frame": {"x":1189,"y":729,"w":430,"h":51},
	"rotated": false,
	"trimmed": false,
	"spriteSourceSize": {"x":0,"y":0,"w":430,"h":51},
	"sourceSize": {"w":430,"h":51}
},
{
	"filename": "loading",
	"frame": {"x":634,"y":1328,"w":326,"h":326},
	"rotated": false,
	"trimmed": false,
	"spriteSourceSize": {"x":0,"y":0,"w":326,"h":326},
	"sourceSize": {"w":326,"h":326}
},
{
	"filename": "lobby-exit-down",
	"frame": {"x":558,"y":1759,"w":101,"h":101},
	"rotated": false,
	"trimmed": false,
	"spriteSourceSize": {"x":0,"y":0,"w":101,"h":101},
	"sourceSize": {"w":101,"h":101}
},
{
	"filename": "lobby-exit-normal",
	"frame": {"x":558,"y":1656,"w":101,"h":101},
	"rotated": false,
	"trimmed": false,
	"spriteSourceSize": {"x":0,"y":0,"w":101,"h":101},
	"sourceSize": {"w":101,"h":101}
},
{
	"filename": "login-register",
	"frame": {"x":943,"y":1656,"w":269,"h":29},
	"rotated": false,
	"trimmed": false,
	"spriteSourceSize": {"x":0,"y":0,"w":269,"h":29},
	"sourceSize": {"w":269,"h":29}
},
{
	"filename": "login-text",
	"frame": {"x":661,"y":1723,"w":125,"h":45},
	"rotated": false,
	"trimmed": false,
	"spriteSourceSize": {"x":0,"y":0,"w":125,"h":45},
	"sourceSize": {"w":125,"h":45}
},
{
	"filename": "login",
	"frame": {"x":170,"y":1481,"w":92,"h":29},
	"rotated": false,
	"trimmed": false,
	"spriteSourceSize": {"x":0,"y":0,"w":92,"h":29},
	"sourceSize": {"w":92,"h":29}
},
{
	"filename": "logout",
	"frame": {"x":1003,"y":1718,"w":120,"h":29},
	"rotated": false,
	"trimmed": false,
	"spriteSourceSize": {"x":0,"y":0,"w":120,"h":29},
	"sourceSize": {"w":120,"h":29}
},
{
	"filename": "menu",
	"frame": {"x":1539,"y":1135,"w":125,"h":24},
	"rotated": false,
	"trimmed": false,
	"spriteSourceSize": {"x":0,"y":0,"w":125,"h":24},
	"sourceSize": {"w":125,"h":24}
},
{
	"filename": "multi-down",
	"frame": {"x":1622,"y":2,"w":372,"h":320},
	"rotated": false,
	"trimmed": false,
	"spriteSourceSize": {"x":0,"y":0,"w":372,"h":320},
	"sourceSize": {"w":372,"h":320}
},
{
	"filename": "multi-normal",
	"frame": {"x":1622,"y":324,"w":372,"h":306},
	"rotated": false,
	"trimmed": true,
	"spriteSourceSize": {"x":0,"y":14,"w":372,"h":306},
	"sourceSize": {"w":372,"h":320}
},
{
	"filename": "new-password",
	"frame": {"x":761,"y":1770,"w":227,"h":32},
	"rotated": false,
	"trimmed": false,
	"spriteSourceSize": {"x":0,"y":0,"w":227,"h":32},
	"sourceSize": {"w":227,"h":32}
},
{
	"filename": "next-down",
	"frame": {"x":975,"y":1252,"w":174,"h":59},
	"rotated": false,
	"trimmed": false,
	"spriteSourceSize": {"x":0,"y":0,"w":174,"h":59},
	"sourceSize": {"w":174,"h":59}
},
{
	"filename": "next-normal",
	"frame": {"x":975,"y":1191,"w":174,"h":59},
	"rotated": false,
	"trimmed": false,
	"spriteSourceSize": {"x":0,"y":0,"w":174,"h":59},
	"sourceSize": {"w":174,"h":59}
},
{
	"filename": "old-password",
	"frame": {"x":788,"y":1723,"w":213,"h":32},
	"rotated": false,
	"trimmed": false,
	"spriteSourceSize": {"x":0,"y":0,"w":213,"h":32},
	"sourceSize": {"w":213,"h":32}
},
{
	"filename": "pass-text",
	"frame": {"x":962,"y":1435,"w":169,"h":35},
	"rotated": false,
	"trimmed": false,
	"spriteSourceSize": {"x":0,"y":0,"w":169,"h":35},
	"sourceSize": {"w":169,"h":35}
},
{
	"filename": "play-down",
	"frame": {"x":1539,"y":1046,"w":255,"h":87},
	"rotated": false,
	"trimmed": false,
	"spriteSourceSize": {"x":0,"y":0,"w":255,"h":87},
	"sourceSize": {"w":255,"h":87}
},
{
	"filename": "play-normal",
	"frame": {"x":505,"y":1947,"w":255,"h":87},
	"rotated": false,
	"trimmed": false,
	"spriteSourceSize": {"x":0,"y":0,"w":255,"h":87},
	"sourceSize": {"w":255,"h":87}
},
{
	"filename": "recommended",
	"frame": {"x":267,"y":1374,"w":289,"h":571},
	"rotated": false,
	"trimmed": false,
	"spriteSourceSize": {"x":0,"y":0,"w":289,"h":571},
	"sourceSize": {"w":289,"h":571}
},
{
	"filename": "register-text",
	"frame": {"x":975,"y":865,"w":194,"h":45},
	"rotated": false,
	"trimmed": false,
	"spriteSourceSize": {"x":0,"y":0,"w":194,"h":45},
	"sourceSize": {"w":194,"h":45}
},
{
	"filename": "register",
	"frame": {"x":943,"y":1687,"w":146,"h":29},
	"rotated": false,
	"trimmed": false,
	"spriteSourceSize": {"x":0,"y":0,"w":146,"h":29},
	"sourceSize": {"w":146,"h":29}
},
{
	"filename": "restart-tutorial",
	"frame": {"x":962,"y":1521,"w":157,"h":47},
	"rotated": false,
	"trimmed": false,
	"spriteSourceSize": {"x":0,"y":0,"w":157,"h":47},
	"sourceSize": {"w":157,"h":47}
},
{
	"filename": "shop-buy-down",
	"frame": {"x":661,"y":1656,"w":280,"h":65},
	"rotated": false,
	"trimmed": false,
	"spriteSourceSize": {"x":0,"y":0,"w":280,"h":65},
	"sourceSize": {"w":280,"h":65}
},
{
	"filename": "shop-buy-normal",
	"frame": {"x":558,"y":1862,"w":280,"h":65},
	"rotated": false,
	"trimmed": false,
	"spriteSourceSize": {"x":0,"y":0,"w":280,"h":65},
	"sourceSize": {"w":280,"h":65}
},
{
	"filename": "single-down",
	"frame": {"x":1622,"y":632,"w":372,"h":305},
	"rotated": false,
	"trimmed": false,
	"spriteSourceSize": {"x":0,"y":0,"w":372,"h":305},
	"sourceSize": {"w":372,"h":305}
},
{
	"filename": "single-normal",
	"frame": {"x":1171,"y":870,"w":366,"h":291},
	"rotated": false,
	"trimmed": true,
	"spriteSourceSize": {"x":1,"y":14,"w":366,"h":291},
	"sourceSize": {"w":372,"h":305}
},
{
	"filename": "submit",
	"frame": {"x":1666,"y":1135,"w":112,"h":22},
	"rotated": false,
	"trimmed": false,
	"spriteSourceSize": {"x":0,"y":0,"w":112,"h":22},
	"sourceSize": {"w":112,"h":22}
},
{
	"filename": "table-menu-down",
	"frame": {"x":1539,"y":939,"w":262,"h":105},
	"rotated": false,
	"trimmed": false,
	"spriteSourceSize": {"x":0,"y":0,"w":262,"h":105},
	"sourceSize": {"w":262,"h":105}
},
{
	"filename": "table-menu-normal",
	"frame": {"x":2,"y":1374,"w":262,"h":105},
	"rotated": false,
	"trimmed": false,
	"spriteSourceSize": {"x":0,"y":0,"w":262,"h":105},
	"sourceSize": {"w":262,"h":105}
},
{
	"filename": "tablelist-bg",
	"frame": {"x":2,"y":1551,"w":263,"h":451},
	"rotated": false,
	"trimmed": false,
	"spriteSourceSize": {"x":0,"y":0,"w":263,"h":451},
	"sourceSize": {"w":263,"h":451}
},
{
	"filename": "to-lobby",
	"frame": {"x":170,"y":1328,"w":159,"h":43},
	"rotated": false,
	"trimmed": false,
	"spriteSourceSize": {"x":0,"y":0,"w":159,"h":43},
	"sourceSize": {"w":159,"h":43}
},
{
	"filename": "tutorial-bg",
	"frame": {"x":1155,"y":1163,"w":874,"h":386},
	"rotated": false,
	"trimmed": false,
	"spriteSourceSize": {"x":0,"y":0,"w":874,"h":386},
	"sourceSize": {"w":874,"h":386}
},
{
	"filename": "tutorial-cards",
	"frame": {"x":2,"y":747,"w":971,"h":579},
	"rotated": false,
	"trimmed": false,
	"spriteSourceSize": {"x":0,"y":0,"w":971,"h":579},
	"sourceSize": {"w":971,"h":579}
},
{
	"filename": "ui-button-down",
	"frame": {"x":1803,"y":939,"w":236,"h":70},
	"rotated": false,
	"trimmed": true,
	"spriteSourceSize": {"x":0,"y":0,"w":236,"h":70},
	"sourceSize": {"w":238,"h":70}
},
{
	"filename": "ui-button-normal",
	"frame": {"x":1803,"y":1011,"w":232,"h":70},
	"rotated": false,
	"trimmed": true,
	"spriteSourceSize": {"x":3,"y":0,"w":232,"h":70},
	"sourceSize": {"w":238,"h":70}
},
{
	"filename": "user-text",
	"frame": {"x":975,"y":1154,"w":178,"h":35},
	"rotated": false,
	"trimmed": false,
	"spriteSourceSize": {"x":0,"y":0,"w":178,"h":35},
	"sourceSize": {"w":178,"h":35}
}],
"meta": {
	"app": "http://www.texturepacker.com",
	"version": "1.0",
	"image": "sprites2.png",
	"format": "RGBA8888",
	"size": {"w":2048,"h":2048},
	"scale": "1",
	"smartupdate": "$TexturePacker:SmartUpdate:6524dd9f5bacd3aedf4c3ebfd006bccc$"
}
}
